<?xml version="1.0" encoding="UTF-8"?>
<session version="1.0">
<refactoring comment="Rename Java project &apos;MyFirstApp&apos; to &apos;MedicationSafetyCode&apos;&#x0D;&#x0A;- Original element: &apos;MyFirstApp&apos;&#x0D;&#x0A;- Renamed element: &apos;MyFirstApp&apos;&#x0D;&#x0A;- Update references to refactored element" description="Rename Java project &apos;MyFirstApp&apos;" flags="7" id="org.eclipse.jdt.ui.rename.java.project" input="=MyFirstApp" name="MedicationSafetyCode" references="true" stamp="1406031886736" version="1.0"/>
</session>